Copyright 1986-2018 Xilinx, Inc. All Rights Reserved.
------------------------------------------------------------------------------------------------------------------------------------------------------
| Tool Version : Vivado v.2018.2 (lin64) Build 2258646 Thu Jun 14 20:02:38 MDT 2018
| Date         : Wed Feb 13 14:45:34 2019
| Host         : bass2 running 64-bit unknown
| Command      : report_drc -file rev5_rebuild_wrapper_drc_routed.rpt -pb rev5_rebuild_wrapper_drc_routed.pb -rpx rev5_rebuild_wrapper_drc_routed.rpx
| Design       : rev5_rebuild_wrapper
| Device       : xc7z010clg400-1
| Speed File   : -1
| Design State : Routed
------------------------------------------------------------------------------------------------------------------------------------------------------

Report DRC

Table of Contents
-----------------
1. REPORT SUMMARY
2. REPORT DETAILS

1. REPORT SUMMARY
-----------------
            Netlist: netlist
          Floorplan: design_1
      Design limits: <entire design considered>
           Ruledeck: default
             Max violations: <unlimited>
             Violations found: 21
+-----------+----------+----------------------------+------------+
| Rule      | Severity | Description                | Violations |
+-----------+----------+----------------------------+------------+
| CHECK-3   | Warning  | Report rule limit reached  | 1          |
| REQP-1839 | Warning  | RAMB36 async control check | 20         |
+-----------+----------+----------------------------+------------+

2. REPORT DETAILS
-----------------
CHECK-3#1 Warning
Report rule limit reached  
REQP-1839 rule limit reached: 20 violations have been found.
Related violations: <none>

REQP-1839#1 Warning
RAMB36 async control check  
The RAMB36E1 rev5_rebuild_i/ram_0/inst/ram_reg_0 has an input control pin rev5_rebuild_i/ram_0/inst/ram_reg_0/ADDRARDADDR[0] (net: rev5_rebuild_i/ram_0/inst/addr[0]) which is driven by a register (rev5_rebuild_i/mem_ctrl_0/inst/read_addr_reg[0]) that has an active asychronous set or reset. This may cause corruption of the memory contents and/or read values when the set/reset is asserted and is not analyzed by the default static timing analysis. It is suggested to eliminate the use of a set/reset to registers driving this RAMB pin or else use a synchronous reset in which the assertion of the reset is timed by default.
Related violations: <none>

REQP-1839#2 Warning
RAMB36 async control check  
The RAMB36E1 rev5_rebuild_i/ram_0/inst/ram_reg_0 has an input control pin rev5_rebuild_i/ram_0/inst/ram_reg_0/ADDRARDADDR[10] (net: rev5_rebuild_i/ram_0/inst/addr[10]) which is driven by a register (rev5_rebuild_i/mem_ctrl_0/inst/read_addr_reg[10]) that has an active asychronous set or reset. This may cause corruption of the memory contents and/or read values when the set/reset is asserted and is not analyzed by the default static timing analysis. It is suggested to eliminate the use of a set/reset to registers driving this RAMB pin or else use a synchronous reset in which the assertion of the reset is timed by default.
Related violations: <none>

REQP-1839#3 Warning
RAMB36 async control check  
The RAMB36E1 rev5_rebuild_i/ram_0/inst/ram_reg_0 has an input control pin rev5_rebuild_i/ram_0/inst/ram_reg_0/ADDRARDADDR[11] (net: rev5_rebuild_i/ram_0/inst/addr[11]) which is driven by a register (rev5_rebuild_i/mem_ctrl_0/inst/read_addr_reg[11]) that has an active asychronous set or reset. This may cause corruption of the memory contents and/or read values when the set/reset is asserted and is not analyzed by the default static timing analysis. It is suggested to eliminate the use of a set/reset to registers driving this RAMB pin or else use a synchronous reset in which the assertion of the reset is timed by default.
Related violations: <none>

REQP-1839#4 Warning
RAMB36 async control check  
The RAMB36E1 rev5_rebuild_i/ram_0/inst/ram_reg_0 has an input control pin rev5_rebuild_i/ram_0/inst/ram_reg_0/ADDRARDADDR[12] (net: rev5_rebuild_i/ram_0/inst/addr[12]) which is driven by a register (rev5_rebuild_i/mem_ctrl_0/inst/read_addr_reg[12]) that has an active asychronous set or reset. This may cause corruption of the memory contents and/or read values when the set/reset is asserted and is not analyzed by the default static timing analysis. It is suggested to eliminate the use of a set/reset to registers driving this RAMB pin or else use a synchronous reset in which the assertion of the reset is timed by default.
Related violations: <none>

REQP-1839#5 Warning
RAMB36 async control check  
The RAMB36E1 rev5_rebuild_i/ram_0/inst/ram_reg_0 has an input control pin rev5_rebuild_i/ram_0/inst/ram_reg_0/ADDRARDADDR[13] (net: rev5_rebuild_i/ram_0/inst/addr[13]) which is driven by a register (rev5_rebuild_i/mem_ctrl_0/inst/read_addr_reg[13]) that has an active asychronous set or reset. This may cause corruption of the memory contents and/or read values when the set/reset is asserted and is not analyzed by the default static timing analysis. It is suggested to eliminate the use of a set/reset to registers driving this RAMB pin or else use a synchronous reset in which the assertion of the reset is timed by default.
Related violations: <none>

REQP-1839#6 Warning
RAMB36 async control check  
The RAMB36E1 rev5_rebuild_i/ram_0/inst/ram_reg_0 has an input control pin rev5_rebuild_i/ram_0/inst/ram_reg_0/ADDRARDADDR[14] (net: rev5_rebuild_i/ram_0/inst/addr[14]) which is driven by a register (rev5_rebuild_i/mem_ctrl_0/inst/read_addr_reg[14]) that has an active asychronous set or reset. This may cause corruption of the memory contents and/or read values when the set/reset is asserted and is not analyzed by the default static timing analysis. It is suggested to eliminate the use of a set/reset to registers driving this RAMB pin or else use a synchronous reset in which the assertion of the reset is timed by default.
Related violations: <none>

REQP-1839#7 Warning
RAMB36 async control check  
The RAMB36E1 rev5_rebuild_i/ram_0/inst/ram_reg_0 has an input control pin rev5_rebuild_i/ram_0/inst/ram_reg_0/ADDRARDADDR[15] (net: rev5_rebuild_i/ram_0/inst/addr[15]) which is driven by a register (rev5_rebuild_i/mem_ctrl_0/inst/read_addr_reg[15]) that has an active asychronous set or reset. This may cause corruption of the memory contents and/or read values when the set/reset is asserted and is not analyzed by the default static timing analysis. It is suggested to eliminate the use of a set/reset to registers driving this RAMB pin or else use a synchronous reset in which the assertion of the reset is timed by default.
Related violations: <none>

REQP-1839#8 Warning
RAMB36 async control check  
The RAMB36E1 rev5_rebuild_i/ram_0/inst/ram_reg_0 has an input control pin rev5_rebuild_i/ram_0/inst/ram_reg_0/ADDRARDADDR[1] (net: rev5_rebuild_i/ram_0/inst/addr[1]) which is driven by a register (rev5_rebuild_i/mem_ctrl_0/inst/read_addr_reg[1]) that has an active asychronous set or reset. This may cause corruption of the memory contents and/or read values when the set/reset is asserted and is not analyzed by the default static timing analysis. It is suggested to eliminate the use of a set/reset to registers driving this RAMB pin or else use a synchronous reset in which the assertion of the reset is timed by default.
Related violations: <none>

REQP-1839#9 Warning
RAMB36 async control check  
The RAMB36E1 rev5_rebuild_i/ram_0/inst/ram_reg_0 has an input control pin rev5_rebuild_i/ram_0/inst/ram_reg_0/ADDRARDADDR[2] (net: rev5_rebuild_i/ram_0/inst/addr[2]) which is driven by a register (rev5_rebuild_i/mem_ctrl_0/inst/read_addr_reg[2]) that has an active asychronous set or reset. This may cause corruption of the memory contents and/or read values when the set/reset is asserted and is not analyzed by the default static timing analysis. It is suggested to eliminate the use of a set/reset to registers driving this RAMB pin or else use a synchronous reset in which the assertion of the reset is timed by default.
Related violations: <none>

REQP-1839#10 Warning
RAMB36 async control check  
The RAMB36E1 rev5_rebuild_i/ram_0/inst/ram_reg_0 has an input control pin rev5_rebuild_i/ram_0/inst/ram_reg_0/ADDRARDADDR[3] (net: rev5_rebuild_i/ram_0/inst/addr[3]) which is driven by a register (rev5_rebuild_i/mem_ctrl_0/inst/read_addr_reg[3]) that has an active asychronous set or reset. This may cause corruption of the memory contents and/or read values when the set/reset is asserted and is not analyzed by the default static timing analysis. It is suggested to eliminate the use of a set/reset to registers driving this RAMB pin or else use a synchronous reset in which the assertion of the reset is timed by default.
Related violations: <none>

REQP-1839#11 Warning
RAMB36 async control check  
The RAMB36E1 rev5_rebuild_i/ram_0/inst/ram_reg_0 has an input control pin rev5_rebuild_i/ram_0/inst/ram_reg_0/ADDRARDADDR[4] (net: rev5_rebuild_i/ram_0/inst/addr[4]) which is driven by a register (rev5_rebuild_i/mem_ctrl_0/inst/read_addr_reg[4]) that has an active asychronous set or reset. This may cause corruption of the memory contents and/or read values when the set/reset is asserted and is not analyzed by the default static timing analysis. It is suggested to eliminate the use of a set/reset to registers driving this RAMB pin or else use a synchronous reset in which the assertion of the reset is timed by default.
Related violations: <none>

REQP-1839#12 Warning
RAMB36 async control check  
The RAMB36E1 rev5_rebuild_i/ram_0/inst/ram_reg_0 has an input control pin rev5_rebuild_i/ram_0/inst/ram_reg_0/ADDRARDADDR[5] (net: rev5_rebuild_i/ram_0/inst/addr[5]) which is driven by a register (rev5_rebuild_i/mem_ctrl_0/inst/read_addr_reg[5]) that has an active asychronous set or reset. This may cause corruption of the memory contents and/or read values when the set/reset is asserted and is not analyzed by the default static timing analysis. It is suggested to eliminate the use of a set/reset to registers driving this RAMB pin or else use a synchronous reset in which the assertion of the reset is timed by default.
Related violations: <none>

REQP-1839#13 Warning
RAMB36 async control check  
The RAMB36E1 rev5_rebuild_i/ram_0/inst/ram_reg_0 has an input control pin rev5_rebuild_i/ram_0/inst/ram_reg_0/ADDRARDADDR[6] (net: rev5_rebuild_i/ram_0/inst/addr[6]) which is driven by a register (rev5_rebuild_i/mem_ctrl_0/inst/read_addr_reg[6]) that has an active asychronous set or reset. This may cause corruption of the memory contents and/or read values when the set/reset is asserted and is not analyzed by the default static timing analysis. It is suggested to eliminate the use of a set/reset to registers driving this RAMB pin or else use a synchronous reset in which the assertion of the reset is timed by default.
Related violations: <none>

REQP-1839#14 Warning
RAMB36 async control check  
The RAMB36E1 rev5_rebuild_i/ram_0/inst/ram_reg_0 has an input control pin rev5_rebuild_i/ram_0/inst/ram_reg_0/ADDRARDADDR[7] (net: rev5_rebuild_i/ram_0/inst/addr[7]) which is driven by a register (rev5_rebuild_i/mem_ctrl_0/inst/read_addr_reg[7]) that has an active asychronous set or reset. This may cause corruption of the memory contents and/or read values when the set/reset is asserted and is not analyzed by the default static timing analysis. It is suggested to eliminate the use of a set/reset to registers driving this RAMB pin or else use a synchronous reset in which the assertion of the reset is timed by default.
Related violations: <none>

REQP-1839#15 Warning
RAMB36 async control check  
The RAMB36E1 rev5_rebuild_i/ram_0/inst/ram_reg_0 has an input control pin rev5_rebuild_i/ram_0/inst/ram_reg_0/ADDRARDADDR[8] (net: rev5_rebuild_i/ram_0/inst/addr[8]) which is driven by a register (rev5_rebuild_i/mem_ctrl_0/inst/read_addr_reg[8]) that has an active asychronous set or reset. This may cause corruption of the memory contents and/or read values when the set/reset is asserted and is not analyzed by the default static timing analysis. It is suggested to eliminate the use of a set/reset to registers driving this RAMB pin or else use a synchronous reset in which the assertion of the reset is timed by default.
Related violations: <none>

REQP-1839#16 Warning
RAMB36 async control check  
The RAMB36E1 rev5_rebuild_i/ram_0/inst/ram_reg_0 has an input control pin rev5_rebuild_i/ram_0/inst/ram_reg_0/ADDRARDADDR[9] (net: rev5_rebuild_i/ram_0/inst/addr[9]) which is driven by a register (rev5_rebuild_i/mem_ctrl_0/inst/read_addr_reg[9]) that has an active asychronous set or reset. This may cause corruption of the memory contents and/or read values when the set/reset is asserted and is not analyzed by the default static timing analysis. It is suggested to eliminate the use of a set/reset to registers driving this RAMB pin or else use a synchronous reset in which the assertion of the reset is timed by default.
Related violations: <none>

REQP-1839#17 Warning
RAMB36 async control check  
The RAMB36E1 rev5_rebuild_i/ram_0/inst/ram_reg_0 has an input control pin rev5_rebuild_i/ram_0/inst/ram_reg_0/ENARDEN (net: rev5_rebuild_i/ram_0/inst/ram_reg_0_ENARDEN_cooolgate_en_sig_1) which is driven by a register (rev5_rebuild_i/mem_ctrl_0/inst/read_addr_reg[15]) that has an active asychronous set or reset. This may cause corruption of the memory contents and/or read values when the set/reset is asserted and is not analyzed by the default static timing analysis. It is suggested to eliminate the use of a set/reset to registers driving this RAMB pin or else use a synchronous reset in which the assertion of the reset is timed by default.
Related violations: <none>

REQP-1839#18 Warning
RAMB36 async control check  
The RAMB36E1 rev5_rebuild_i/ram_0/inst/ram_reg_1 has an input control pin rev5_rebuild_i/ram_0/inst/ram_reg_1/ADDRARDADDR[13] (net: rev5_rebuild_i/ram_0/inst/addr[13]) which is driven by a register (rev5_rebuild_i/mem_ctrl_0/inst/read_addr_reg[13]) that has an active asychronous set or reset. This may cause corruption of the memory contents and/or read values when the set/reset is asserted and is not analyzed by the default static timing analysis. It is suggested to eliminate the use of a set/reset to registers driving this RAMB pin or else use a synchronous reset in which the assertion of the reset is timed by default.
Related violations: <none>

REQP-1839#19 Warning
RAMB36 async control check  
The RAMB36E1 rev5_rebuild_i/ram_0/inst/ram_reg_1 has an input control pin rev5_rebuild_i/ram_0/inst/ram_reg_1/ADDRARDADDR[14] (net: rev5_rebuild_i/ram_0/inst/addr[14]) which is driven by a register (rev5_rebuild_i/mem_ctrl_0/inst/read_addr_reg[14]) that has an active asychronous set or reset. This may cause corruption of the memory contents and/or read values when the set/reset is asserted and is not analyzed by the default static timing analysis. It is suggested to eliminate the use of a set/reset to registers driving this RAMB pin or else use a synchronous reset in which the assertion of the reset is timed by default.
Related violations: <none>

REQP-1839#20 Warning
RAMB36 async control check  
The RAMB36E1 rev5_rebuild_i/ram_0/inst/ram_reg_1 has an input control pin rev5_rebuild_i/ram_0/inst/ram_reg_1/ADDRARDADDR[15] (net: rev5_rebuild_i/ram_0/inst/addr[15]) which is driven by a register (rev5_rebuild_i/mem_ctrl_0/inst/read_addr_reg[15]) that has an active asychronous set or reset. This may cause corruption of the memory contents and/or read values when the set/reset is asserted and is not analyzed by the default static timing analysis. It is suggested to eliminate the use of a set/reset to registers driving this RAMB pin or else use a synchronous reset in which the assertion of the reset is timed by default.
Related violations: <none>


